…
Below we see some examples of negative tweets

``` r
#Read data from csv-file
tweetData <- read_csv(file = "train.csv", col_types = cols_only(tweet = col_character(),
                                                            s2 = col_double()))

#Save negative sentiment in a vector that is to be predicted in later modelling
s2 <- as.matrix(tweetData$s2)

#Print some tweets ordered by negative sentiment
arrange(tweetData, desc(s2))
```

    ## # A tibble: 77,946 × 2
    ##                                                                          tweet
    ##                                                                          <chr>
    ## 1  I'm gonna do big things today: running during shit weather and writing my e
    ## 2                                                @mention cold cloudy rainy :(
    ## 3                                                             too hot out here
    ## 4  I'm SO happy we're getting this race in today but goodness... This humidity
    ## 5             My client said its not cold outside girl puhlezz its bur is shyt
    ## 6            Dang only 72degrees today, where is all the warm spring weather??
    ## 7  @mention I do have to agree with you, My lawn is getting about 12" tall, It
    ## 8  RT @mention: Sick of wearin a hoodie one day n the next day wearin flip flo
    ## 9  I hate when a shoot is cancelled & rescheduled due to weather then an hour 
    ## 10                                        My boxer is not liking this weather!
    ## # ... with 77,936 more rows, and 1 more variables: s2 <dbl>
…
At last we refit our model to the data using the tuned lambda value. The model we are using is linear so each word has its own beta parameter. The value of the parameter can be intepreted as the marginal increase of expected negativity score if the word is in the tweet. So a higher parameter value indicates that the word has a negative sentiment. Below we see the list of the 10 words that has the highest parameter estimates.

``` r
finalModel <- glmnet(y = s2, x = mat, alpha = 0.5, lambda = model$lambda.min)
coef <- tibble(variable = row.names(finalModel$beta), beta = as.numeric(finalModel$beta))
arrange(coef, desc(beta))
```

    ## # A tibble: 1,077 × 2
    ##    variable      beta
    ##       <chr>     <dbl>
    ## 1    crappi 0.5117718
    ## 2    shitti 0.4595968
    ## 3   horribl 0.4562549
    ## 4   depress 0.4292953
    ## 5      suck 0.4175831
    ## 6     nasti 0.4157189
    ## 7    dreari 0.4069617
    ## 8     miser 0.3783830
    ## 9      crap 0.3428576
    ## 10  terribl 0.3324477
    ## # ... with 1,067 more rows
…
